year,rate,revenue,rate1,rate2,rate3
1998,19-30-40,5.7687,19,30,40
1999,19-30-40,3.4723,19,30,40
2000,19-30-40,3.1017843085,19,30,40
2001,19-30-40,3.0073220416,19,30,40
2002,19-30-40,2.9853644299,19,30,40
2003,19-30-40,3.0451067181,19,30,40
2004,19-30-40,2.326134783,19,30,40
2005,19-30-40,2.4837740592,19,30,40
2006,19-30-40,2.6532242925,19,30,40
2007,19-30-40,3.0047495745,19,30,40
2008,19-30-40,3.030973035,19,30,40
2009,18-32,2.6622677662,18,18,32
2010,18-32,2.5147221427,18,18,32
2011,18-32,2.5866168478,18,18,32
2012,18-32,2.4954490291,18,18,32
2013,18-32,2.5242305346,18,18,32
2014,18-32,2.48825743,18,18,32