year,rate,revenue
1998,22,7.1354
1999,22,7.3325
2000,22,6.9520861713
2001,22,6.7849592849
2002,22,7.1040394371
2003,22,7.1587582844
2004,22,6.7345203767
2005,22,7.6681426459
2006,22,7.9657576052
2007,22,8.1878788548
2008,22,7.9802529653
2009,22,7.4033956494
2010,22,7.6219756462
2011,23,8.2086888587
2012,23,7.522309787
2013,23,6.9333197208
2014,23,7.186943